Applied Statistics
…
For more than 2 colors I do not recommend choosing the colors yourself. I know little about color theory so I use the built-in color palettes. Here is a great cheatsheet about using color palettes.

And this easy change is why we love ggplot2.

2.4.2 Grouped bar charts with percentages

Not as easy as one would hope, but the solution is to calculate the desired percentages first and then plot the summary data using either geom_bar(stat='identity') or geom_col().

calc.props <- diamonds %>% group_by(color, cut) %>%
              summarise(count=n()) %>%
              mutate(pct=round(count/sum(count),3))
calc.props
## # A tibble: 35 × 4
## # Groups:   color [7]
##    color cut       count   pct
##    <ord> <ord>     <int> <dbl>
##  1 D     Fair        163 0.024
##  2 D     Good        662 0.098
##  3 D     Very Good  1513 0.223
##  4 D     Premium    1603 0.237
##  5 D     Ideal      2834 0.418
##  6 E     Fair        224 0.023
##  7 E     Good        933 0.095
##  8 E     Very Good  2400 0.245
##  9 E     Premium    2337 0.239
## 10 E     Ideal      3903 0.398
## # … with 25 more rows
## # ℹ Use `print(n = ...)` to see more rows
…
